Section 6 Systématiser nos procédures : construire une fonction | DATA MINING
…
    Appartement
1 346 430
96.9

    Autres
31 685
2.3

    Total
1 389 375
100.0

Essayez d’écrire une seconde fonction somme() permettant de systématiser le code suivant qui donne un tableau de contingences du nombre de propriétaires par IRIS (cela nous servira pour plus tard…), en ajoutant une fonction de filtre qui peut contenir plusieurs variables. Pour cela, on va utiliser l’argument “…” : cet argument est très pratique si l’on ne sait pas combien il y aura de variable(s) dans la fonction à laquelle elle s’applique, c’est-à-dire autant 0 variable, 1 variable ou plus d’une variable ; mais elle peut-être aussi “dangereuse” si on ne se souvient plus qu’on l’a créée et/ou si on ne fait pas attention à bien remplir les autres arguments avec les noms correspondants. On va également introduire la fonction group_by() pour avoir les tableaux de contingence par IRIS.

# A tibble: 917 x 2
   IRIS      nb_proprietaires
   <fct>                <dbl>
 1 751010101              107
 2 751010102               52
 3 751010103               35
 4 751010201              472
 5 751010202              302
 6 751010203              511
 7 751010204              328
 8 751010206               95
 9 751010301              584
10 751010302               34
# ... with 907 more rows
…
  return(som_1)
  
}

Vérifions :

somme(data=RP, COMMUNE == "75056" & STOCD == "10", 
      var_gpe=IRIS, nom_var=nb_proprietaires, var1=IPONDL) %>% 
  mutate(nb_proprietaires=round(nb_proprietaires, 0))

# A tibble: 917 x 2
   IRIS      nb_proprietaires
   <fct>                <dbl>
 1 751010101              107
 2 751010102               52
 3 751010103               35
 4 751010201              472
 5 751010202              302
 6 751010203              511
 7 751010204              328
 8 751010206               95
 9 751010301              584
10 751010302               34
# ... with 907 more rows
